{
  "swagger": "2.0",
  "info": {
    "title": "api/helloworld/greeter.proto",
    "version": "version not set"
  },
  "tags": [
    {
      "name": "Greeter"
    }
  ],
  "consumes": [
    "application/json"
  ],
  "produces": [
    "application/json"
  ],
  "paths": {
    "/helloworld/{name}": {
      "get": {
        "summary": "Sends a greeting",
        "operationId": "Greeter_SayHello",
        "responses": {
          "200": {
            "description": "A successful response.",
            "schema": {
              "$ref": "#/definitions/helloworldHelloReply"
            }
          },
          "default": {
            "description": "An unexpected error response.",
            "schema": {
              "$ref": "#/definitions/rpcStatus"
            }
          }
        },
        "parameters": [
          {
            "name": "name",
            "in": "path",
            "required": true,
            "type": "string"
          }
        ],
        "tags": [
          "Greeter"
        ]
      }
    }
  },
  "definitions": {
    "helloworldHelloReply": {
      "type": "object",
      "properties": {
        "message": {
          "type": "string"
        }
      },
      "title": "The response message containing the greetings"
    },
    "protobufAny": {
      "type": "object",
      "properties": {
        "typeUrl": {
          "type": "string"
        },
        "value": {
          "type": "string",
          "format": "byte"
        }
      }
    },
    "rpcStatus": {
      "type": "object",
      "properties": {
        "code": {
          "type": "integer",
          "format": "int32"
        },
        "message": {
          "type": "string"
        },
        "details": {
          "type": "array",
          "items": {
            "$ref": "#/definitions/protobufAny"
          }
        }
      }
    }
  }
}
